<svg width="16" height="22" viewBox="0 0 16 22" fill="none" xmlns="http://www.w3.org/2000/svg">
    <path fill-rule="evenodd" clip-rule="evenodd" d="M3.6669 10.9508C3.63132 10.6024 2.85527 10.6012 2.709 9.32938C2.63051 8.64679 2.94268 8.26249 3.13176 8.14171C3.13176 8.14171 2.66084 7.04004 2.66084 5.94753C2.66084 2.69743 4.2288 0 8.01223 0C10.0547 0 10.6879 1.48597 10.6879 1.48597C12.5128 1.48597 13.3636 3.53924 13.3636 5.94753C13.3636 7.14801 12.8927 8.14171 12.8927 8.14171C13.0818 8.26249 13.3939 8.64679 13.3155 9.32938C13.1692 10.6012 12.6733 10.9233 12.3576 10.9508C12.2363 12.1366 11.0893 13.6555 10.6879 13.877V15.8589C11.2116 17.6059 13.8838 17.6511 16 18.7972C16 20.8199 10.9851 22 8 22C5.01491 22 0 20.8199 0 18.8106C2.12001 17.6515 4.81081 17.6126 5.33653 15.8589V13.877C4.93518 13.6574 3.7882 12.1384 3.6669 10.9508Z" fill="currentColor"/>
</svg>
